Book Title,Author,Date
Harry Potter and the Philosopher's Stone,J. K. Rowling,26 June 1997
The Colour of Magic,Terry Pratchett,24 November 1983
The Hitchhiker's Guide to the Galaxy,Douglas Adams,12 October 1979
